{
  "metadata": {
    "keyword": "护肤",
    "date": "2025-11-14T14:31:30.249529",
    "total_pages": 3
  },
  "page_details": [
    {
      "page_num": 1,
      "request": {
        "keyword": "护肤",
        "cursor": 0,
        "offset": 0,
        "page": 0,
        "search_id": "",
        "count": 20,
        "search_channel": "aweme_user_web",
        "sort_type": 0,
        "publish_time": 0
      },
      "response_code": 200,
      "user_count": 20,
      "config": {
        "keyword": "护肤",
        "has_more": 1,
        "is_filter_search": 0,
        "search_nil_info": null,
        "next_page": {
          "keyword": "护肤",
          "search_request_id": "20251114143118A0AB413974405E722BDF",
          "search_id": "20251114143118A0AB413974405E722BDF",
          "cursor": 20,
          "poi_search_info": ""
        },
        "card_count": 20,
        "extra_fresh_struct": null,
        "ad_info": null,
        "filter_bar": {
          "filter_settings": [
            {
              "name": "douyin_user_fans",
              "default_index": 0,
              "log_name": "by_user_fans",
              "items": [
                {
                  "title": "不限",
                  "value": "",
                  "log_value": "fans_all"
                },
                {
                  "title": "1000以下",
                  "value": "0_1k",
                  "log_value": "fans_0_1k"
                },
                {
                  "title": "1000-1w",
                  "value": "1k_1w",
                  "log_value": "fans_1k_1w"
                },
                {
                  "title": "1w-10w",
                  "value": "1w_10w",
                  "log_value": "fans_1w_10w"
                },
                {
                  "title": "10w-100w",
                  "value": "10w_100w",
                  "log_value": "fans_10w_100"
                },
                {
                  "value": "100w_",
                  "log_value": "fans_100w_",
                  "title": "100w以上"
                }
              ],
              "title": "粉丝数量"
            },
            {
              "title": "用户类型",
              "name": "douyin_user_type",
              "default_index": 0,
              "log_name": "by_user_type",
              "items": [
                {
                  "log_value": "type_all",
                  "title": "不限",
                  "value": ""
                },
                {
                  "title": "普通用户",
                  "value": "common_user",
                  "log_value": "type_common"
                },
                {
                  "value": "enterprise_user",
                  "log_value": "type_enterprise",
                  "title": "企业认证"
                },
                {
                  "value": "personal_user",
                  "log_value": "type_personal",
                  "title": "个人认证"
                }
              ]
            }
          ]
        },
        "extra": {
          "hidden_filter": false,
          "req_start_ts": 1763101878731,
          "is_filter_search": 0
        },
        "feedback": {
          "text_first": "找不到想找的帐号？",
          "text_second": "告诉我们",
          "url": "aweme://webview/?url=https%3A%2F%2Faweme.snssdk.com%2Ffalcon%2Ffe_app_react%2Fquestionnaire%2Findex.html%3Fcontainer_bgcolor%3D00000000%26do_not_remove_card_after_feedback%3D0%26enable_new_feedback_ui%3D0%26enter_from%3Dsearch_result%26experimental_adjust_pan%3D1%26experimental_fix_status_bar%3D1%26feedback_rank%3Dfeedback_rank_value%26fid%3D100021%26forbidden_anim%3D1%26hide_loading%3D1%26hide_nav_bar%3D1%26hide_status_bar%3D1%26initialQuestionNum%3D6%26is_aladdin%3D0%26loading_bgcolor%3D00000000%26log_pb%3D%257B%2522impr_id%2522%253A%252220251114143118A0AB413974405E722BDF%2522%257D%26search_content_type%3Daweme_user_page%26search_id%3D20251114143118A0AB413974405E722BDF%26search_keyword%3D%2525E6%25258A%2525A4%2525E8%252582%2525A4%26search_score%3D0%26should_full_screen%3D1&forbidden_anim=1"
        },
        "pre_loadmore_config": null,
        "poi_search_info": ""
      }
    },
    {
      "page_num": 2,
      "request": {
        "keyword": "护肤",
        "cursor": 20,
        "offset": 0,
        "page": 1,
        "search_id": "20251114143118A0AB413974405E722BDF",
        "count": 20,
        "search_channel": "aweme_user_web",
        "sort_type": 0,
        "publish_time": 0
      },
      "response_code": 200,
      "user_count": 20,
      "config": {
        "keyword": "护肤",
        "has_more": 1,
        "is_filter_search": 0,
        "search_nil_info": null,
        "next_page": {
          "keyword": "护肤",
          "search_request_id": "20251114143118A0AB413974405E722BDF",
          "search_id": "20251114143118A0AB413974405E722BDF",
          "cursor": 40,
          "poi_search_info": ""
        },
        "card_count": 20,
        "extra_fresh_struct": null,
        "ad_info": null,
        "filter_bar": {
          "filter_settings": [
            {
              "title": "粉丝数量",
              "name": "douyin_user_fans",
              "default_index": 0,
              "log_name": "by_user_fans",
              "items": [
                {
                  "title": "不限",
                  "value": "",
                  "log_value": "fans_all"
                },
                {
                  "title": "1000以下",
                  "value": "0_1k",
                  "log_value": "fans_0_1k"
                },
                {
                  "title": "1000-1w",
                  "value": "1k_1w",
                  "log_value": "fans_1k_1w"
                },
                {
                  "title": "1w-10w",
                  "value": "1w_10w",
                  "log_value": "fans_1w_10w"
                },
                {
                  "value": "10w_100w",
                  "log_value": "fans_10w_100",
                  "title": "10w-100w"
                },
                {
                  "title": "100w以上",
                  "value": "100w_",
                  "log_value": "fans_100w_"
                }
              ]
            },
            {
              "name": "douyin_user_type",
              "default_index": 0,
              "log_name": "by_user_type",
              "items": [
                {
                  "log_value": "type_all",
                  "title": "不限",
                  "value": ""
                },
                {
                  "title": "普通用户",
                  "value": "common_user",
                  "log_value": "type_common"
                },
                {
                  "title": "企业认证",
                  "value": "enterprise_user",
                  "log_value": "type_enterprise"
                },
                {
                  "title": "个人认证",
                  "value": "personal_user",
                  "log_value": "type_personal"
                }
              ],
              "title": "用户类型"
            }
          ]
        },
        "extra": {
          "hidden_filter": false,
          "is_filter_search": 0,
          "req_start_ts": 1763101883689
        },
        "feedback": {
          "text_first": "找不到想找的帐号？",
          "text_second": "告诉我们",
          "url": "aweme://webview/?url=https%3A%2F%2Faweme.snssdk.com%2Ffalcon%2Ffe_app_react%2Fquestionnaire%2Findex.html%3Fcontainer_bgcolor%3D00000000%26do_not_remove_card_after_feedback%3D0%26enable_new_feedback_ui%3D0%26enter_from%3Dsearch_result%26experimental_adjust_pan%3D1%26experimental_fix_status_bar%3D1%26feedback_rank%3Dfeedback_rank_value%26fid%3D100021%26forbidden_anim%3D1%26hide_loading%3D1%26hide_nav_bar%3D1%26hide_status_bar%3D1%26initialQuestionNum%3D6%26is_aladdin%3D0%26loading_bgcolor%3D00000000%26log_pb%3D%257B%2522impr_id%2522%253A%25222025111414312346CC605EBE8FE975606B%2522%257D%26search_content_type%3Daweme_user_page%26search_id%3D20251114143118A0AB413974405E722BDF%26search_keyword%3D%2525E6%25258A%2525A4%2525E8%252582%2525A4%26search_score%3D0%26should_full_screen%3D1&forbidden_anim=1"
        },
        "pre_loadmore_config": null,
        "poi_search_info": ""
      }
    },
    {
      "page_num": 3,
      "request": {
        "keyword": "护肤",
        "cursor": 40,
        "offset": 0,
        "page": 2,
        "search_id": "20251114143118A0AB413974405E722BDF",
        "count": 20,
        "search_channel": "aweme_user_web",
        "sort_type": 0,
        "publish_time": 0
      },
      "response_code": 200,
      "user_count": 20,
      "config": {
        "keyword": "护肤",
        "has_more": 1,
        "is_filter_search": 0,
        "search_nil_info": null,
        "next_page": {
          "keyword": "护肤",
          "search_request_id": "20251114143118A0AB413974405E722BDF",
          "search_id": "20251114143118A0AB413974405E722BDF",
          "cursor": 60,
          "poi_search_info": ""
        },
        "card_count": 20,
        "extra_fresh_struct": null,
        "ad_info": null,
        "filter_bar": {
          "filter_settings": [
            {
              "title": "粉丝数量",
              "name": "douyin_user_fans",
              "default_index": 0,
              "log_name": "by_user_fans",
              "items": [
                {
                  "title": "不限",
                  "value": "",
                  "log_value": "fans_all"
                },
                {
                  "title": "1000以下",
                  "value": "0_1k",
                  "log_value": "fans_0_1k"
                },
                {
                  "title": "1000-1w",
                  "value": "1k_1w",
                  "log_value": "fans_1k_1w"
                },
                {
                  "title": "1w-10w",
                  "value": "1w_10w",
                  "log_value": "fans_1w_10w"
                },
                {
                  "title": "10w-100w",
                  "value": "10w_100w",
                  "log_value": "fans_10w_100"
                },
                {
                  "title": "100w以上",
                  "value": "100w_",
                  "log_value": "fans_100w_"
                }
              ]
            },
            {
              "items": [
                {
                  "title": "不限",
                  "value": "",
                  "log_value": "type_all"
                },
                {
                  "title": "普通用户",
                  "value": "common_user",
                  "log_value": "type_common"
                },
                {
                  "title": "企业认证",
                  "value": "enterprise_user",
                  "log_value": "type_enterprise"
                },
                {
                  "title": "个人认证",
                  "value": "personal_user",
                  "log_value": "type_personal"
                }
              ],
              "title": "用户类型",
              "name": "douyin_user_type",
              "default_index": 0,
              "log_name": "by_user_type"
            }
          ]
        },
        "extra": {
          "is_filter_search": 0,
          "hidden_filter": false,
          "req_start_ts": 1763101888598
        },
        "feedback": {
          "text_first": "找不到想找的帐号？",
          "text_second": "告诉我们",
          "url": "aweme://webview/?url=https%3A%2F%2Faweme.snssdk.com%2Ffalcon%2Ffe_app_react%2Fquestionnaire%2Findex.html%3Fcontainer_bgcolor%3D00000000%26do_not_remove_card_after_feedback%3D0%26enable_new_feedback_ui%3D0%26enter_from%3Dsearch_result%26experimental_adjust_pan%3D1%26experimental_fix_status_bar%3D1%26feedback_rank%3Dfeedback_rank_value%26fid%3D100021%26forbidden_anim%3D1%26hide_loading%3D1%26hide_nav_bar%3D1%26hide_status_bar%3D1%26initialQuestionNum%3D6%26is_aladdin%3D0%26loading_bgcolor%3D00000000%26log_pb%3D%257B%2522impr_id%2522%253A%2522202511141431287323D50F887081E08CCE%2522%257D%26search_content_type%3Daweme_user_page%26search_id%3D20251114143118A0AB413974405E722BDF%26search_keyword%3D%2525E6%25258A%2525A4%2525E8%252582%2525A4%26search_score%3D0%26should_full_screen%3D1&forbidden_anim=1"
        },
        "pre_loadmore_config": null,
        "poi_search_info": ""
      }
    }
  ]
}